<?xml version="1.0" encoding="UTF-8" standalone="no"?>
<!-- Generator: Adobe Illustrator 16.0.0, SVG Export Plug-In . SVG Version: 6.00 Build 0)  -->
<!DOCTYPE svg  PUBLIC '-//W3C//DTD SVG 1.1//EN'  'http://www.w3.org/Graphics/SVG/1.1/DTD/svg11.dtd' [
	<!ENTITY ns_extend "http://ns.adobe.com/Extensibility/1.0/">
	<!ENTITY ns_ai "http://ns.adobe.com/AdobeIllustrator/10.0/">
	<!ENTITY ns_graphs "http://ns.adobe.com/Graphs/1.0/">
	<!ENTITY ns_vars "http://ns.adobe.com/Variables/1.0/">
	<!ENTITY ns_imrep "http://ns.adobe.com/ImageReplacement/1.0/">
	<!ENTITY ns_sfw "http://ns.adobe.com/SaveForWeb/1.0/">
	<!ENTITY ns_custom "http://ns.adobe.com/GenericCustomNamespace/1.0/">
	<!ENTITY ns_adobe_xpath "http://ns.adobe.com/XPath/1.0/">
]>
<svg id="Layer_1" xmlns="http://www.w3.org/2000/svg" enable-background="new 0 0 123.171 73.298" xml:space="preserve" height="73.298px" viewBox="0 0 123.171 73.298" width="123.17px" version="1.1" y="0px" x="0px" xmlns:xlink="http://www.w3.org/1999/xlink">
<switch>
	<foreignObject y="0" x="0" height="1" width="1" requiredExtensions="http://ns.adobe.com/AdobeIllustrator/10.0/">
	</foreignObject>
	<g>
						<path d="m95.656 17.259v-3.448c0-1.84-1.488-3.329-3.314-3.329-1.832 0-3.314 1.489-3.314 3.329v3.448h6.628z" fill="#F07D2D"/>
						<rect y="19.126" x="89.027" height=".756" width="6.629" fill="#32AEB0"/>
						<path d="m92.615 8.768c0 0.153-0.121 0.279-0.273 0.279s-0.279-0.125-0.279-0.279v-2.082c0-0.153 0.127-0.277 0.279-0.277s0.273 0.124 0.273 0.277v2.082z" fill="#F07D2D"/>
						<path d="m96.136 10.464c-0.109 0.111-0.287 0.111-0.396 0-0.102-0.109-0.102-0.286 0-0.394l1.473-1.474c0.102-0.109 0.279-0.109 0.387 0 0.105 0.11 0.105 0.287 0 0.395l-1.464 1.473z" fill="#F07D2D"/>
						<path d="m97.421 14.158c-0.15 0-0.273-0.127-0.273-0.282 0-0.153 0.123-0.277 0.273-0.277l2.082 0.006c0.15 0.001 0.277 0.125 0.277 0.282 0 0.154-0.127 0.279-0.277 0.279l-2.082-0.008z" fill="#F07D2D"/>
						<path d="m85.13 14.126c-0.15 0-0.275-0.126-0.275-0.283 0-0.151 0.125-0.277 0.275-0.277l2.08 0.005c0.156 0.001 0.279 0.128 0.279 0.282s-0.123 0.278-0.275 0.278l-2.084-0.005z" fill="#F07D2D"/>
						<path d="m87.06 8.944c-0.111-0.107-0.115-0.287 0-0.398 0.102-0.108 0.275-0.108 0.387 0.004l1.467 1.478c0.109 0.11 0.109 0.289 0 0.397-0.109 0.109-0.281 0.109-0.393 0.002l-1.461-1.483z" fill="#F07D2D"/>
						<path d="m79.716 2.75v19.171l2.756-0.004 18.996-0.033c0.145 0.006 0.422 0.203 0.469 0.326l5.264 13.964c0.42 1.11 1.559 2.126 2.713 2.417l7.012 1.738c0.078 0.021 0.215 0.186 0.215 0.285v10.808l2.889-0.146 0.396-0.02v7.754h-16.169l-0.256 2.464c-0.539 5.173-4.85 9.073-10.021 9.073-5.178 0-9.49-3.9-10.031-9.073l-0.256-2.464h-48.587l-0.257 2.464c-0.539 5.173-4.848 9.073-10.024 9.073-5.177 0-9.486-3.9-10.025-9.071l-0.249-2.466h-11.8v-7.762h3.652l-0.002-2.75-0.04-45.748h73.356m0.09-2.75h-73.528c-1.47 0-2.667 1.197-2.667 2.671l0.042 45.827h-0.986c-1.472 0-2.667 1.199-2.667 2.671v7.92c0 1.474 1.195 2.669 2.667 2.669h9.404c0.674 6.476 6.139 11.54 12.759 11.54 6.618 0 12.085-5.064 12.758-11.54h43.63c0.676 6.476 6.141 11.54 12.766 11.54 6.619 0 12.084-5.064 12.756-11.54h13.764c1.473 0 2.668-1.195 2.668-2.669v-7.92c0-1.472-1.195-2.671-2.668-2.671l-0.615 0.031v-7.915c0-1.355-0.984-2.624-2.297-2.952l-7.018-1.741c-0.266-0.067-0.705-0.459-0.799-0.717l-5.264-13.964c-0.457-1.198-1.764-2.104-3.041-2.104l-19.002 0.032v-16.497c0.01-1.474-1.185-2.671-2.652-2.671z" fill="#0F75B4"/>
						<path d="m93.984 56.374c2.211 0 4.006 1.81 4.006 4.034 0 2.226-1.795 4.039-4.004 4.039-2.211 0-4.014-1.813-4.014-4.037 0-2.226 1.799-4.036 4.012-4.036m0-2.753c-3.729 0-6.762 3.045-6.762 6.789 0.004 3.741 3.039 6.785 6.764 6.785s6.754-3.044 6.754-6.787c0-3.742-3.03-6.787-6.756-6.787z" fill="#0F75B4"/>
						<path d="m24.83 56.374c2.21 0 4.008 1.81 4.008 4.038 0.002 1.079-0.417 2.091-1.173 2.854-0.76 0.761-1.767 1.182-2.834 1.182-2.21 0-4.009-1.813-4.009-4.039 0-2.225 1.797-4.035 4.008-4.035m0-2.753c-3.727 0-6.757 3.045-6.757 6.787 0 3.743 3.03 6.787 6.758 6.787 1.81 0 3.503-0.709 4.784-1.991 1.273-1.278 1.973-2.985 1.973-4.796 0-3.742-3.032-6.787-6.758-6.787z" fill="#0F75B4"/>
						<path d="m98.228 27.496l2.201 6.77h-13.423v-6.77h11.221m1.992-2.75h-15.963v12.268h19.957l-3.99-12.268z" fill="#0F75B4"/>
							<polygon points="44.548 36.855 48.685 36.855 48.685 27.052 58.529 27.052 58.529 18.852 48.685 18.852 48.685 9.073 44.548 9.073 44.583 9.073 40.445 9.073 40.445 18.852 30.599 18.852 30.599 27.052 40.445 27.052 40.445 36.855 44.583 36.855" fill="#F07D2D"/>
	</g>
</switch>
</svg>
